{
	"title": "Advantages component",
	"type": "object",
	"required": [
		"title",
		"buttonUrl",
		"buttonText",
		"content"
	],
	"properties": {
		"identifier": {
			"type": "string",
			"title": "Identifier"
		},
		"title": {
			"type": "string",
			"title": "Title"
		},
		"buttonUrl": {
      "type": "string",
      "pattern": "(?:|^)#[A-Za-z0-9\\-\\.\\_]+(?:|$)|(https?:\\\/\\\/)?(www\\.)[-a-zA-Z0-9@:%._\\+~#=]{2,256}\\.[a-z]{2,4}\\b([-a-zA-Z0-9@:%_\\+.~#?&\/\/=]*)|(https?:\\\/\\\/)?(www\\.)?(?!ww)[-a-zA-Z0-9@:%._\\+~#=]{2,256}\\.[a-z]{2,4}\\b([-a-zA-Z0-9@:%_\\+.~#?&\/\/=]*)",
			"title": "Button URL"
		},
		"buttonText": {
			"type": "string",
			"title": "Button Title"
		},
		"content": {
			"type": "array",
			"title": "Advantages",
			"items": {
				"type": "object",
				"required": [
					"icon",
					"title",
					"description"
				],
				"properties": {
					"icon": {
						"type": "string",
						"format": "uri",
						"title": "URL",
						"description": "URL of the icon for the advantage"
					},
					"title": {
						"type": "string",
						"title": "Title"
					},
					"description": {
						"type": "string",
						"title": "Description"
					}
				}
			}
		}
	}
}