{
	"title": "Gallery component",
	"type": "object",
	"required": [
		"title",
		"collectionId",
		"collectionHandle"
	],
	"properties": {
		"identifier": {
			"type": "string",
			"title": "Identifier"
		},
		"title": {
			"type": "string",
			"title": "Title"
		},
		"collectionId": {
			"type": "string",
			"title": "Collection ID (number in the URL in admin)"
		},
		"collectionHandle": {
			"type": "string",
			"title": "Collection Handle"
		}
	}
}
