{
	"title": "USE CASE component",
	"type": "object",
	"required": [
		"title",
		"content"
	],
	"properties": {
		"identifier": {
			"type": "string",
			"title": "Identifier"
		},
		"title": {
			"type": "string",
			"title": "Title"
		},
		"description": {
			"type": "string",
			"title": "Description"
		},
		"content": {
			"type": "array",
			"title": "USE CASE",
			"items": {
				"type": "object",
				"required": [
					"description",
					"imageUrl",
					"imageLocation",
					"buttonText",
					"buttonUrl"
				],
				"properties": {
					"title": {
						"type": "string",
						"title": "Title"
					},
					"description": {
						"type": "string",
						"title": "Description"
					},
					"imageUrl": {
						"type": "string",
						"format": "uri",
						"title": "Image URL"
					},
					"imageLocation": {
						"type": "string",
						"enum": ["left", "right"],
						"title": "Image Location"
					},
					"buttonText": {
						"type": "string",
						"title": "Button Text"
					},
					"buttonUrl": {
            "type": "string",
            "pattern": "(?:|^)#[A-Za-z0-9\\-\\.\\_]+(?:|$)|(https?:\\\/\\\/)?(www\\.)[-a-zA-Z0-9@:%._\\+~#=]{2,256}\\.[a-z]{2,4}\\b([-a-zA-Z0-9@:%_\\+.~#?&\/\/=]*)|(https?:\\\/\\\/)?(www\\.)?(?!ww)[-a-zA-Z0-9@:%._\\+~#=]{2,256}\\.[a-z]{2,4}\\b([-a-zA-Z0-9@:%_\\+.~#?&\/\/=]*)",
						"title": "Button Url"
					}
				}
			}
		}
	}
}
